…
```r
nla_wq_sites <- st_as_sf(nla_wq_sites, 
                         coords = c("lon_dd83", "lat_dd83"),
                         crs = 4326)
nla_wq_sites
```

```
## Simple feature collection with 1210 features and 30 fields
## Geometry type: POINT
## Dimension:     XY
## Bounding box:  xmin: -124.4373 ymin: 26.07154 xmax: -67.69865 ymax: 48.97325
## Geodetic CRS:  WGS 84
## # A tibble: 1,210 × 31
##        uid site_…¹ cntyn…² site_…³ date_col   state   doc
##  *   <dbl> <chr>   <chr>   <chr>   <date>     <chr> <dbl>
##  1 2010177 NLA17_… Washoe  NLA17_… 2017-05-30 NV     7.72
##  2 2010178 NLA17_… Washoe  NLA17_… 2017-05-31 NV     7.12
##  3 2010179 NLA17_… Kidder  NLA17_… 2017-06-01 ND    27.2 
##  4 2010180 NLA17_… Mineral NLA17_… 2017-06-01 NV    62.6 
##  5 2010181 NLA17_… Geauga  NLA17_… 2017-06-01 OH     6.92
##  6 2010182 NLA17_… Maury   NLA17_… 2017-06-02 TN     3.9 
##  7 2010183 NLA17_… Yavapai NLA17_… 2017-06-01 AZ    10.6 
##  8 2010184 NLA17_… Muskeg… NLA17_… 2017-06-05 MI     5.29
##  9 2010185 NLA17_… Kidder  NLA17_… 2017-06-05 ND    17.1 
## 10 2010186 NLA17_… Marin   NLA17_… 2017-06-05 CA     4   
## # … with 1,200 more rows, 24 more variables:
## #   silica <dbl>, chloride <dbl>, cond <dbl>,
## #   nitrate_n <dbl>, ph <dbl>, chla <dbl>, ntl <dbl>,
## #   turb <dbl>, ammonia_n <dbl>, sulfate <dbl>,
## #   color <dbl>, anc <dbl>, ptl <dbl>, nitrite_n <dbl>,
## #   magnesium <dbl>, calcium <dbl>, potassium <dbl>,
## #   sodium <dbl>, `NA` <dbl>, aluminum <dbl>, …
```
…
